<?xml version="1.0" encoding="utf-8"?>
<!-- Generator: Adobe Illustrator 16.0.0, SVG Export Plug-In . SVG Version: 6.00 Build 0)  -->
<!DOCTYPE svg PUBLIC "-//W3C//DTD SVG 1.1//EN" "http://www.w3.org/Graphics/SVG/1.1/DTD/svg11.dtd">
<svg version="1.1" id="char" xmlns="http://www.w3.org/2000/svg" xmlns:xlink="http://www.w3.org/1999/xlink" x="0px" y="0px"
	 width="422px" height="604.761px" viewBox="0 0 422 604.761" enable-background="new 0 0 422 604.761" xml:space="preserve">
<g>
	<g id="body_1_">
		<g>
			<g>
				<path fill="#0094BB" d="M328.123,556.966c8.746,13.876,27.092,18.034,40.971,9.284l0,0c13.875-8.75,18.033-27.095,9.283-40.97
					l-73.504-116.553c-8.746-13.874-27.092-18.031-40.967-9.282l0,0c-13.879,8.75-18.035,27.095-9.287,40.97L328.123,556.966z"/>
			</g>
			<path fill="#0094BB" d="M93.877,556.633c-8.746,13.876-27.092,18.034-40.97,9.284l0,0c-13.876-8.75-18.034-27.095-9.283-40.97
				l73.503-116.553c8.747-13.874,27.093-18.031,40.968-9.282l0,0c13.878,8.75,18.035,27.095,9.287,40.97L93.877,556.633z"/>
		</g>
		<g>
			<path fill="#0094BB" d="M289.339,589.761l0.166-129.539c0-26.85-13.504-50.539-34.082-64.675
				c-8.232-16.192-25.037-27.294-44.448-27.294c-19.504,0-36.38,11.209-44.568,27.53c-20.388,14.162-33.747,37.735-33.747,64.438
				l-0.166,129.539"/>
			<circle opacity="0.5" fill="#FFFFFF" cx="210.977" cy="418.098" r="49.845"/>
		</g>
		<g>
			<path fill="#0094BB" d="M383.716,544.86c0,14.311-11.598,25.908-25.908,25.908l-118.982,0.001
				c-14.311,0-25.906-11.598-25.906-25.908l0,0c0-14.312,11.596-25.908,25.906-25.908l118.982-0.001
				C372.119,518.952,383.716,530.548,383.716,544.86L383.716,544.86z"/>
			<path fill="#0094BB" d="M209.081,544.86c0,14.311-11.598,25.908-25.908,25.908l-118.981,0.001
				c-14.311,0-25.907-11.598-25.907-25.908l0,0c0-14.312,11.597-25.908,25.907-25.908l118.981-0.001
				C197.483,518.952,209.081,530.548,209.081,544.86L209.081,544.86z"/>
			<path opacity="0.4" fill="#FFFFFF" d="M209.081,544.86c0,14.311-11.598,25.908-25.908,25.908l-118.981,0.001
				c-14.311,0-25.907-11.598-25.907-25.908l0,0c0-14.312,11.597-25.908,25.907-25.908l118.981-0.001
				C197.483,518.952,209.081,530.548,209.081,544.86L209.081,544.86z"/>
			<path opacity="0.4" fill="#FFFFFF" d="M383.716,544.86c0,14.311-11.598,25.908-25.908,25.908l-118.982,0.001
				c-14.311,0-25.906-11.598-25.906-25.908l0,0c0-14.312,11.596-25.908,25.906-25.908l118.982-0.001
				C372.119,518.952,383.716,530.548,383.716,544.86L383.716,544.86z"/>
			<circle id="mano2" fill="#F6C09C" cx="188.639" cy="544.652" r="30.572"/>
			<circle id="mano1" fill="#F6C09C" cx="229.64" cy="544.652" r="30.571"/>
		</g>
	</g>
	<path id="collo" fill="#EE927E" d="M242.041,410.948c0,17.171-13.922,31.094-31.097,31.094l0,0
		c-17.17,0-31.092-13.923-31.092-31.094v-58.293c0-17.171,13.922-31.094,31.092-31.094l0,0c17.175,0,31.097,13.923,31.097,31.094
		V410.948z"/>
</g>
<g id="head">
	<g id="orecchie">
		<g id="esternoOrecchie">
			<path fill="#F6C09C" d="M302.308,263.828c0,10.357-8.4,18.754-18.748,18.754c-10.357,0-18.758-8.396-18.758-18.754
				c0-10.348,8.4-18.748,18.758-18.748C293.908,245.08,302.308,253.48,302.308,263.828z"/>
			<path fill="#F6C09C" d="M157.183,263.828c0,10.357-8.39,18.754-18.744,18.754c-10.361,0-18.748-8.396-18.748-18.754
				c0-10.348,8.387-18.748,18.748-18.748C148.793,245.08,157.183,253.48,157.183,263.828z"/>
		</g>
		<g id="internoOrecchie">
			<path fill="#EE927E" d="M292.152,263.828c0,4.757-3.844,8.6-8.592,8.6s-8.59-3.843-8.59-8.6c0-4.738,3.842-8.591,8.59-8.591
				S292.152,259.089,292.152,263.828z"/>
			<path fill="#EE927E" d="M147.029,263.828c0,4.757-3.849,8.6-8.59,8.6c-4.754,0-8.601-3.843-8.601-8.6
				c0-4.738,3.846-8.591,8.601-8.591C143.18,255.237,147.029,259.089,147.029,263.828z"/>
		</g>
	</g>
	<path id="viso_1_" fill="#F6C09C" d="M283.555,282.955v-28.576v-2v-0.401v-0.862v-47.607v-33.779
		c0-7.308-2.313-14.241-6.445-20.489c-4.283-6.474-10.52-12.212-18.209-16.85c-9.039-5.454-20.07-9.387-32.256-11.222
		c-5.039-0.759-10.266-1.171-15.638-1.171c-9.431,0-18.432,1.246-26.698,3.489c-17.518,4.754-31.688,14.043-39.431,25.754
		c-4.131,6.248-6.436,13.183-6.436,20.489v24.257v50.291v7.701v0.402v2v26.305v8.685v39.942c0,27.467,1,55.596,73.556,55.596
		c72.562,0,71.556-28.129,71.556-55.596V289.37V282.955z"/>
	<g id="capelli5_1_">
		<path fill="#002334" d="M292.327,149.24v-4.401c0-17-13.779-30.78-30.779-30.78H238.11h-90.516H93.377v30.778
			c0,17,13.78,30.78,30.78,30.78h0.839v76.361h13.52v-7.701v-50.291v-18.369h9.078h90.516h45.52v27.892v47.607v0.862h14.242V149.24
			H292.327z"/>
		<path opacity="0.2" fill="#FFFFFF" d="M102.424,142.842c0-2.761,2.238-5,5-5c2.761,0,5,2.239,5,5
			c0,6.846,5.568,12.415,12.414,12.415c2.761,0,5,2.238,5,5c0,2.761-2.239,5-5,5C112.479,165.257,102.424,155.201,102.424,142.842z"
			/>
	</g>
	<g id="capelli4">
		<path fill="#002334" d="M138.479,209.413c0-12.992,7.275-24.816,19.177-33.675c29.553,26.29,74.704,25.494,103.319-2.379
			c13.51,8.802,22.088,21.128,22.57,34.836v44.22v2v28.576c13.916-20.873,22.316-47.887,22.316-77.4
			c0-66.131-42.146-95.219-94.134-95.219c-3.993,0-7.927,0.173-11.79,0.52l-45.561-45.561
			c-21.035,21.036-27.124,51.341-18.301,77.761c-11.611,15.146-18.482,35.803-18.482,62.499c0,28.454,7.807,54.585,20.838,75.13
			v-26.305v-2"/>
		<path opacity="0.5" fill="#FFFFFF" d="M261.708,172.661c-29.639,29.64-77.692,29.639-107.331,0.001
			c-29.638-29.639-29.639-77.691,0-107.331"/>
	</g>
	<g id="capelli3">
		<path fill="#002334" d="M211.003,13.74c-81.388,0-147.361,65.972-147.361,147.356c0,55.002,30.139,102.958,74.801,128.273v-34.989
			v-2v-82.65c0-1.442,0.109-2.866,0.285-4.277c20.568,7.582,45.456,12.021,72.275,12.021c26.816,0,51.701-4.439,72.267-12.021
			c0.176,1.411,0.285,2.834,0.285,4.277v82.649v2v34.991c44.66-25.314,74.803-73.271,74.803-128.274
			C358.358,79.712,292.379,13.74,211.003,13.74z"/>
		<path opacity="0.2" fill="#FFFFFF" d="M332.408,154.555c-3.246,0-5.878-2.632-5.878-5.878
			c0-56.457-45.932-102.388-102.388-102.388c-3.247,0-5.879-2.632-5.879-5.878c0-3.247,2.632-5.878,5.879-5.878
			c62.938,0,114.144,51.205,114.144,114.144C338.286,151.923,335.654,154.555,332.408,154.555z"/>
	</g>
	<path id="capelli2" fill="#002334" d="M312.356,181.619c0-52.079-39.281-94.976-89.827-100.699l4.076-17.414L204.126,80.5
		c-52.773,3.536-94.483,47.452-94.483,101.118c0,27.532,10.983,52.495,28.8,70.761v-64.828h80.039l19.638-19.637v19.637h0.696
		l19.638-19.637v19.637h25.104v64.827C301.374,234.113,312.356,209.15,312.356,181.619z"/>
	<g id="capelli1_1_">
		<path fill="#002334" d="M326.496,120.56c0-37.513-30.416-67.93-67.93-67.93c-20.271,0-38.459,8.89-50.906,22.969
			c-7.313-4.018-15.708-6.308-24.64-6.308c-28.272,0-51.2,22.896-51.264,51.15c-4.405,5.518-8.244,11.504-11.433,17.875
			c-7.54,4.073-12.664,12.047-12.664,21.217c0,4.069,1.014,7.899,2.795,11.261c-0.531,4.202-0.805,8.483-0.805,12.83
			c0,27.528,10.98,52.488,28.793,70.753v0.008h0.115v-71.746c8.664-2.548,15.298-9.831,16.905-18.86
			c7.96,5.086,17.41,8.046,27.557,8.046c8.929,0,17.323-2.288,24.635-6.303c12.448,14.085,30.635,22.979,50.911,22.979
			c4.584,0,9.061-0.461,13.391-1.327c2.497,4.791,6.558,8.631,11.504,10.857v56.353h0.115v-0.013
			c0.228-0.233,0.442-0.479,0.668-0.714h0.027v-0.029c15.765-16.494,26.031-38.287,27.813-62.45
			c3.34-4.136,5.344-9.396,5.344-15.125c0-5.398-1.777-10.382-4.777-14.399C321.332,150.241,326.496,136.005,326.496,120.56z"/>
		<path opacity="0.2" fill="#FFFFFF" d="M313.359,118.334c0,4.775-3.872,8.647-8.647,8.647c-4.776,0-8.646-3.872-8.646-8.647
			c0-20.436-16.626-37.059-37.059-37.059c-4.777,0-8.647-3.873-8.647-8.647c0-4.777,3.87-8.647,8.647-8.647
			C288.976,63.981,313.359,88.364,313.359,118.334z"/>
	</g>
	<g id="bocca4">
		<path fill="#C52C54" d="M187.333,329.944c0,6.19,2.38,11.823,6.271,16.041c4.122-5.688,10.815-9.391,18.376-9.391
			c7.016,0,13.287,3.187,17.449,8.19c3.273-4.06,5.236-9.22,5.236-14.841c0-4.446-1.229-8.606-3.361-12.16h-40.609
			C188.563,321.337,187.333,325.498,187.333,329.944z"/>
		<path fill="#EE3965" d="M211.98,336.594c-7.561,0-14.254,3.702-18.376,9.391c4.325,4.687,10.517,7.625,17.396,7.625
			c7.449,0,14.091-3.445,18.429-8.825C225.267,339.781,218.997,336.594,211.98,336.594z"/>
		<path fill="#FFFFFF" d="M211,306.277c-8.623,0-16.168,4.613-20.305,11.507h40.609C227.167,310.89,219.623,306.277,211,306.277z"/>
	</g>
	<g id="bocca3_1_">
		<path fill="#C52C54" d="M220.023,336.286c4.614,0,8.907,0.758,12.506,2.055c3.207-4.405,5.447-9.803,6.326-15.748h-55.711
			c1.507,10.188,7,18.779,14.536,23.495C200.056,340.47,209.154,336.286,220.023,336.286z"/>
		<path fill="#FFFFFF" d="M239.279,316.924c0-1.49-0.094-2.956-0.257-4.395h-56.045c-0.164,1.438-0.256,2.904-0.256,4.395
			c0,1.934,0.15,3.825,0.423,5.668h55.711C239.128,320.75,239.279,318.858,239.279,316.924z"/>
		<path fill="#EE3965" d="M232.529,338.34c-3.599-1.297-7.892-2.055-12.506-2.055c-10.869,0-19.967,4.185-22.344,9.802
			c3.969,2.483,8.503,3.893,13.32,3.893C219.626,349.98,227.343,345.459,232.529,338.34z"/>
	</g>
	<path id="bocca2" fill="#C52C54" d="M229.588,338.625h-38.847c-2.762,0-5-2.238-5-5s2.238-5,5-5h38.847c2.763,0,5,2.238,5,5
		S232.351,338.625,229.588,338.625z"/>
	<path id="bocca1_1_" fill="#C52C54" d="M186.227,333.725c-1.917-1.917-1.917-5.025,0-6.943c1.918-1.917,5.026-1.917,6.944,0
		c9.371,9.371,24.617,9.371,33.988,0c1.918-1.917,5.026-1.917,6.944,0c1.917,1.918,1.917,5.026,0,6.943
		C220.903,346.924,199.427,346.924,186.227,333.725z"/>
	<path id="baffi4" fill="#002334" d="M175.999,312.326v-16.592c0-11.768,9.539-21.307,21.306-21.307h27.389
		c11.768,0,21.307,9.539,21.307,21.307v16.592"/>
	<path id="baffi3" fill="#002334" d="M264.401,300.066c0-0.283-0.022-0.561-0.042-0.839c-0.009-0.119-0.007-0.24-0.019-0.357
		c-0.03-0.297-0.082-0.587-0.134-0.876c-0.017-0.095-0.024-0.192-0.044-0.286c-0.104-0.513-0.255-1.009-0.425-1.495
		c-1.596-4.57-5.932-7.854-11.046-7.854c0,0,0,0-0.001,0l0,0h-83.382c-6.467,0-11.71,5.242-11.71,11.709
		c0,0.026,0.004,0.051,0.004,0.077l-0.004,28.912c0,6.467,5.243,11.71,11.711,11.71c6.467,0,11.709-5.243,11.709-11.71l0.002-17.278
		h59.958l-0.002,17.278c0,6.467,5.243,11.71,11.711,11.71c6.467,0,11.709-5.243,11.709-11.71L264.401,300.066L264.401,300.066
		L264.401,300.066z"/>
	<path id="baffi2" fill="#002334" d="M253.63,295.761l-30.29-30.281c-3.405-3.406-7.877-5.09-12.34-5.063
		c-4.463-0.027-8.935,1.657-12.341,5.063l-30.289,30.281c-6.757,6.756-6.757,17.712,0.001,24.469
		c6.756,6.757,17.711,6.756,24.467-0.001L211,302.072l18.162,18.157c6.756,6.757,17.711,6.758,24.468,0.001
		C260.385,313.473,260.385,302.517,253.63,295.761z"/>
	<path id="baffi1" fill="#002334" d="M254.052,282.582c-4.511,0-8.167,3.657-8.167,8.168h-69.771c0-4.511-3.657-8.168-8.168-8.168
		c-4.511,0-8.167,3.657-8.167,8.168v2.667c0,9.572,11.008,17.333,24.587,17.333c13.579,0,25.608-7.761,25.608-17.333h2.084
		c0,9.572,11.998,17.333,25.576,17.333c13.579,0,24.588-7.761,24.588-17.333v-2.667
		C262.221,286.239,258.563,282.582,254.052,282.582z"/>
	<g id="naso3">
		<circle fill="#ED3C3B" cx="211" cy="268.833" r="20.838"/>
		<circle fill="#E97E7F" cx="203.701" cy="259.874" r="6.347"/>
	</g>
	<path id="naso2" fill="#EE927E" d="M225.106,283.894c0,7.794-6.324,14.111-14.105,14.111l0,0c-7.794,0-14.107-6.317-14.107-14.111
		v-45.276c0-7.797,6.313-14.109,14.107-14.109l0,0c7.781,0,14.105,6.313,14.105,14.109V283.894z"/>
	<path id="naso1_1_" fill="#EE3965" d="M236.186,273.185c0,13.91-11.276,25.187-25.187,25.187c-13.91,0-25.186-11.276-25.186-25.187
		c0-13.908,11.276-50.734,25.186-50.734C224.91,222.451,236.186,259.277,236.186,273.185z"/>
	<g id="occhi">
		<path fill="#FFFFFF" d="M270.559,233.018c0,10.755-8.732,19.474-19.475,19.474c-10.762,0-19.5-8.719-19.5-19.474
			c0-10.768,8.738-19.482,19.5-19.482C261.827,213.535,270.559,222.25,270.559,233.018z"/>
		<path fill="#FFFFFF" d="M190.416,233.018c0,10.756-8.733,19.474-19.475,19.474c-10.762,0-19.5-8.718-19.5-19.474
			c0-10.768,8.738-19.482,19.5-19.482C181.683,213.535,190.416,222.25,190.416,233.018z"/>
		<g id="pupillaL">
			<circle fill="#0093BA" cx="170.928" cy="233.013" r="8.566"/>
			<circle opacity="0.5" fill="#FFFFFF" cx="168.408" cy="231.276" r="3.433"/>
		</g>
		<g id="pupillaR">
			<circle fill="#0093BA" cx="251.071" cy="233.013" r="8.566"/>
			<circle opacity="0.5" fill="#FFFFFF" cx="248.55" cy="231.277" r="3.433"/>
		</g>
	</g>
	<g id="occhiali3">
		<path opacity="0.5" fill="#FFFFFF" d="M163.864,209.267c-11.029,0-19.969,8.942-19.969,19.969v7.555
			c0,1.493,0.177,2.942,0.487,4.34l23.231-31.864H163.864z"/>
		<path opacity="0.5" fill="#FFFFFF" d="M151.444,252.41c3.411,2.717,7.722,4.35,12.42,4.35h14.328
			c11.028,0,19.969-8.941,19.969-19.969v-27.523h-15.264L151.444,252.41z"/>
		<path opacity="0.5" fill="#FFFFFF" d="M258.132,256.759c11.029,0,19.971-8.941,19.971-19.969v-7.555
			c0-4.251-1.338-8.185-3.604-11.423l-28.395,38.947H258.132z"/>
		<path opacity="0.5" fill="#FFFFFF" d="M258.132,209.267h-19.475h-0.36l-14.46,19.835v7.688c0,7.086,3.701,13.293,9.266,16.838
			l31.535-43.256C262.597,209.668,260.414,209.267,258.132,209.267z"/>
		<path fill="#3857A7" d="M279.587,210.833c-2.779-3.106-6.297-5.538-10.277-7.02c-2.814-1.048-5.861-1.624-9.043-1.624h-16.811
			h-4.799H215.75h-9.501h-8.876h-9.315h-5.377h-9.907h-11.044c-14.315,0-25.921,11.605-25.921,25.921v9.806
			c0,4.082,0.946,7.939,2.626,11.375c3.188,6.518,9.033,11.496,16.123,13.533c2.278,0.656,4.683,1.014,7.172,1.014h18.598
			c1.207,0,2.392-0.088,3.555-0.248c12.633-1.734,22.367-12.564,22.367-25.673v-5.006v-23.644h0.832h8.669v6.32v4.292v18.038
			c0,0.724,0.038,1.438,0.096,2.146c0.701,8.539,5.534,15.906,12.502,20.089c3.703,2.225,8.006,3.543,12.609,3.668
			c0.238,0.006,0.475,0.018,0.715,0.018h18.596c14.318,0,25.924-11.605,25.924-25.921v-9.806
			C286.191,221.472,283.693,215.418,279.587,210.833z M198.162,236.79c0,11.028-8.941,19.969-19.969,19.969h-14.328
			c-4.699,0-9.01-1.633-12.42-4.35c-3.512-2.795-6.055-6.744-7.062-11.279c-0.311-1.398-0.487-2.848-0.487-4.34v-7.555
			c0-11.026,8.94-19.969,19.969-19.969h3.749h15.066h0.218h15.264V236.79z M278.103,236.79c0,11.028-8.941,19.969-19.971,19.969
			h-12.027h-2.299c-3.942,0-7.607-1.158-10.703-3.131c-5.564-3.545-9.266-9.752-9.266-16.838v-7.688v-19.835h14.46h0.36h19.475
			c2.281,0,4.465,0.401,6.506,1.105c4.025,1.388,7.465,4.016,9.861,7.44c2.266,3.239,3.604,7.172,3.604,11.423V236.79z"/>
	</g>
	<g id="occhiali2">
		<g>
			<path fill="#0094BB" d="M205.1,212.206h-12.022h-62.495l0.001,14.958c0,20.575,16.682,37.259,37.258,37.259
				c20.579,0,37.258-16.684,37.258-37.259l-0.001-5.833h13.098l-2.9-9.125H205.1z M168.556,258.898
				c-16.84,0-30.492-13.465-30.492-30.08l-0.171-11.601h60.979l0.171,11.601C199.043,245.433,185.391,258.898,168.556,258.898z"/>
			<path fill="#0094BB" d="M291.415,212.206H223.36h-6.463h-14.408l2.9,9.125h11.508l0.002,5.833
				c0,20.574,16.682,37.258,37.258,37.258c20.58,0,37.26-16.684,37.26-37.258L291.415,212.206z M253.791,258.898
				c-16.84,0-30.492-13.465-30.492-30.079l-0.171-11.601h60.979l0.173,11.601C284.28,245.433,270.626,258.898,253.791,258.898z"/>
		</g>
		<g>
			<path fill="#00BFDF" d="M168.812,217.218l-25.255,28.815c1.377,1.942,2.978,3.716,4.771,5.286l29.887-34.101H168.812z"/>
			<path fill="#00BFDF" d="M163.294,258.443c1.71,0.294,3.466,0.456,5.262,0.456c16.835,0,30.487-13.465,30.487-30.08l-0.162-10.979
				L163.294,258.443z"/>
			<path fill="#CFECF3" d="M137.892,217.218l0.171,11.601c0,6.405,2.035,12.337,5.493,17.215l25.255-28.815H137.892z"/>
			<path fill="#CFECF3" d="M198.872,217.218h-20.658l-29.887,34.101c4.138,3.623,9.281,6.148,14.967,7.124l35.587-40.604
				L198.872,217.218z"/>
		</g>
		<g>
			<path fill="#00BFDF" d="M284.107,217.218h-25.143l-27.819,31.741c5.338,5.838,12.964,9.595,21.482,9.911l31.563-36.013
				L284.107,217.218z"/>
			<path fill="#CFECF3" d="M223.127,217.218l0.171,11.601c0,7.748,2.971,14.808,7.847,20.14l27.819-31.741H223.127z"/>
			<path fill="#CFECF3" d="M284.28,228.819l-0.09-5.963l-31.563,36.013c0.387,0.015,0.772,0.029,1.163,0.029
				C270.626,258.898,284.28,245.433,284.28,228.819z"/>
		</g>
	</g>
	<g id="occhiali1_1_">
		<path opacity="0.5" fill="#FFFFFF" d="M171.208,199.019c-2.605,0-5.138,0.303-7.576,0.858l-26.375,34.792
			c0.296,6.164,2.239,11.893,5.391,16.769l38.595-50.912C178.071,199.547,174.701,199.019,171.208,199.019z"/>
		<path opacity="0.5" fill="#FFFFFF" d="M193.551,207.369l-40.972,54.047c5.359,3.531,11.773,5.592,18.67,5.592
			c18.774,0,33.993-15.221,33.993-33.995C205.243,222.775,200.711,213.601,193.551,207.369z"/>
		<path opacity="0.5" fill="#FFFFFF" d="M272.93,207.265l-40.984,54.066c5.387,3.582,11.85,5.676,18.805,5.676
			c18.771,0,33.992-15.221,33.992-33.995C284.743,222.718,280.161,213.5,272.93,207.265z"/>
		<path opacity="0.5" fill="#FFFFFF" d="M250.75,199.019c-2.617,0-5.162,0.306-7.611,0.866l-16.48,21.741l-9.86,13.006
			c0.013,0.268,0.035,0.531,0.054,0.795c0.502,7.148,3.209,13.686,7.453,18.936l39.863-52.588
			C260.051,200.003,255.517,199.019,250.75,199.019z"/>
		<path fill="#8DC63F" d="M276.274,202.855c-2.623-2.223-5.537-4.11-8.682-5.594c-5.111-2.412-10.817-3.766-16.842-3.766
			c-0.961,0-1.909,0.045-2.852,0.112c-13.617,0.973-25.319,8.838-31.639,20.135c-2.714,4.85-4.44,10.327-4.895,16.163h-0.731
			c-0.839-10.772-5.995-20.331-13.738-26.949c-3.544-3.029-7.633-5.436-12.097-7.066c-4.227-1.544-8.787-2.395-13.549-2.395
			c-0.95,0-1.889,0.045-2.822,0.111c-20.506,1.448-36.695,18.53-36.695,39.405c0,2.722,0.275,5.378,0.799,7.946
			c1.134,5.555,3.441,10.68,6.64,15.121c2.748,3.814,6.153,7.125,10.06,9.752c6.292,4.229,13.866,6.699,22.018,6.699
			c8.655,0,16.656-2.785,23.164-7.506c3.258-2.361,6.14-5.211,8.542-8.438c2.236-3.004,4.053-6.338,5.371-9.914
			c0.192-0.521,0.374-1.051,0.544-1.584c0.59-1.84,1.057-3.736,1.374-5.684h1.511c0.082,0.508,0.18,1.01,0.28,1.51
			c0.046,0.225,0.097,0.449,0.146,0.672c1.441,6.514,4.489,12.418,8.706,17.285c2.26,2.609,4.855,4.92,7.721,6.863
			c6.316,4.285,13.934,6.795,22.143,6.795c8.469,0,16.309-2.674,22.742-7.211c6.641-4.684,11.773-11.357,14.525-19.162
			c1.451-4.113,2.248-8.535,2.248-13.146C290.266,220.92,284.831,210.104,276.274,202.855z M171.25,267.007
			c-6.897,0-13.311-2.061-18.67-5.592c-3.95-2.602-7.321-6.004-9.89-9.977c-3.152-4.877-5.095-10.605-5.391-16.77
			c-0.026-0.549-0.042-1.102-0.042-1.657c0-16.168,11.292-29.69,26.417-33.136c2.438-0.555,4.971-0.857,7.576-0.857
			c3.493,0,6.863,0.529,10.035,1.508c4.579,1.412,8.739,3.772,12.267,6.842c7.16,6.232,11.692,15.406,11.692,25.644
			C205.243,251.787,190.024,267.007,171.25,267.007z M250.75,267.007c-6.955,0-13.418-2.094-18.805-5.676
			c-2.889-1.924-5.465-4.277-7.641-6.969c-4.244-5.25-6.951-11.787-7.453-18.936c-0.019-0.264-0.041-0.527-0.054-0.795
			c-0.025-0.537-0.041-1.077-0.041-1.62c0-5.745,1.431-11.154,3.947-15.899c4.56-8.599,12.7-15,22.435-17.228
			c2.449-0.561,4.994-0.866,7.611-0.866c4.767,0,9.301,0.984,13.418,2.756c3.207,1.38,6.156,3.242,8.762,5.49
			c7.23,6.234,11.813,15.453,11.813,25.747C284.743,251.787,269.522,267.007,250.75,267.007z"/>
	</g>
</g>
<path fill="#D6782A" d="M414.994,586.296c0,8.542-6.925,15.465-15.466,15.465H20.994c-8.541,0-15.465-6.923-15.465-15.465l0,0
	c0-8.542,6.924-15.465,15.465-15.465h378.534C408.069,570.832,414.994,577.754,414.994,586.296L414.994,586.296z"/>
<g id="pc">
	<path fill="#46455B" d="M321.656,532.806c0,15.898-13.224,28.788-29.537,28.788H131.878c-16.313,0-29.536-12.89-29.536-28.788
		V444.6c0-15.898,13.224-28.788,29.536-28.788h160.241c16.313,0,29.537,12.89,29.537,28.788V532.806z"/>
	<rect x="102.342" y="560.594" fill="#46455B" width="219.314" height="10.237"/>
	<path fill="#FFFFFF" d="M214.811,484.702c0-3.843,1.086-7.423,2.938-10.488c-2.08-0.748-4.313-1.178-6.65-1.178
		c-10.863,0-19.669,8.806-19.669,19.668c0,10.861,8.806,19.667,19.669,19.667c6.855,0,12.885-3.513,16.406-8.832
		C220.063,500.517,214.811,493.228,214.811,484.702z"/>
	<path fill="#FFFFFF" d="M231.768,456.066c-1.106-0.377-2.288-0.59-3.522-0.59c-6.051,0-10.954,4.903-10.954,10.954
		c0,1.233,0.213,2.416,0.59,3.522C225.415,469.651,231.466,463.599,231.768,456.066z"/>
</g>
<g id="book">
	<path fill="#FFFFFF" d="M221.07,546.652c-3.804,0-7.295,1.312-10.07,3.491c-2.776-2.18-6.267-3.491-10.07-3.491
		c-9.021,0-16.334,7.313-16.334,16.334h20.142h12.525h20.142C237.404,553.964,230.091,546.652,221.07,546.652z"/>
	<rect x="125.705" y="555.426" fill="#FFFFFF" width="170.59" height="4.87"/>
	<rect x="119.691" y="559.731" fill="#D22027" width="182.617" height="11.101"/>
</g>
<g id="writing">
	<g id="pen">
		<path fill="#002334" d="M183.005,468.179v80.876c0.732-0.049,1.468-0.088,2.219-0.088c0.75,0,1.486,0.039,2.219,0.088v-80.876
			H183.005z"/>
		<path fill="#EDDA49" d="M180.046,468.179v81.115c0,0.021,0.003,0.051,0.004,0.074c0.964-0.147,1.954-0.247,2.956-0.313v-80.876
			H180.046z"/>
		<path fill="#EDDA49" d="M190.404,549.294v-81.115h-2.96v80.876c1.003,0.066,1.992,0.166,2.956,0.313
			C190.4,549.345,190.404,549.315,190.404,549.294z"/>
		<path fill="#002334" d="M185.225,463.943c-2.861,0-5.179,1.686-5.179,3.766v0.471h10.358v-0.471
			C190.404,465.628,188.086,463.943,185.225,463.943z"/>
		<path fill="#F2EFDD" d="M187.923,558.374c1.229-3.77,2.427-7.964,2.476-9.085c-1.669-0.26-3.399-0.401-5.175-0.401
			s-3.505,0.142-5.175,0.401c0.051,1.123,1.255,5.318,2.49,9.083c0.876-0.103,1.769-0.172,2.685-0.172
			C186.147,558.2,187.044,558.269,187.923,558.374z"/>
		<path fill="#002334" d="M185.226,564.705c0,1.327,1.369-2.255,2.698-6.331c-0.879-0.104-1.776-0.174-2.698-0.174
			c-0.916,0-1.809,0.069-2.685,0.172C183.867,562.418,185.226,565.972,185.226,564.705z"/>
	</g>
	<g>
		<rect x="116.065" y="563.549" fill="#FFFFFF" width="189.87" height="6.781"/>
		<rect x="110.979" y="566.94" fill="#44A647" width="200.042" height="4.27"/>
	</g>
</g>
</svg>
