<?xml version="1.0" encoding="utf-8"?>
<!-- Generator: Adobe Illustrator 16.0.0, SVG Export Plug-In . SVG Version: 6.00 Build 0)  -->
<!DOCTYPE svg PUBLIC "-//W3C//DTD SVG 1.1//EN" "http://www.w3.org/Graphics/SVG/1.1/DTD/svg11.dtd">
<svg version="1.1" id="Livello_1" xmlns="http://www.w3.org/2000/svg" xmlns:xlink="http://www.w3.org/1999/xlink" x="0px" y="0px"
	 width="118.792px" height="93.289px" viewBox="0 0 118.792 93.289" enable-background="new 0 0 118.792 93.289"
	 xml:space="preserve">
<path id="baffi3" fill="#002334" d="M112.797,32.149c0-0.283-0.022-0.561-0.042-0.839c-0.009-0.119-0.007-0.24-0.019-0.357
	c-0.03-0.297-0.082-0.587-0.134-0.876c-0.017-0.095-0.024-0.192-0.044-0.286c-0.104-0.513-0.255-1.009-0.425-1.495
	c-1.596-4.57-5.932-7.854-11.046-7.854c0,0,0,0-0.001,0l0,0H17.705c-6.468,0-11.71,5.242-11.71,11.709
	c0,0.026,0.004,0.051,0.004,0.077L5.995,61.139c0,6.467,5.243,11.709,11.711,11.709c6.467,0,11.709-5.242,11.709-11.709
	l0.002-17.279h59.958l-0.002,17.279c0,6.467,5.243,11.709,11.711,11.709c6.467,0,11.709-5.242,11.709-11.709L112.797,32.149
	L112.797,32.149L112.797,32.149z"/>
</svg>
