<?xml version="1.0" encoding="utf-8"?>
<!-- Generator: Adobe Illustrator 16.0.0, SVG Export Plug-In . SVG Version: 6.00 Build 0)  -->
<!DOCTYPE svg PUBLIC "-//W3C//DTD SVG 1.1//EN" "http://www.w3.org/Graphics/SVG/1.1/DTD/svg11.dtd">
<svg version="1.1" id="Livello_1" xmlns="http://www.w3.org/2000/svg" xmlns:xlink="http://www.w3.org/1999/xlink" x="0px" y="0px"
	 width="197.988px" height="161.075px" viewBox="0 0 197.988 161.075" enable-background="new 0 0 197.988 161.075"
	 xml:space="preserve">
<g id="book">
	<path fill="#FFFFFF" d="M109.064,68.447c-3.804,0-7.295,1.312-10.07,3.491c-2.776-2.18-6.267-3.491-10.07-3.491
		c-9.021,0-16.334,7.313-16.334,16.334h20.142h12.525h20.142C125.398,75.76,118.085,68.447,109.064,68.447z"/>
	<rect x="13.699" y="77.222" fill="#FFFFFF" width="170.59" height="4.87"/>
	<rect x="7.686" y="81.526" fill="#D22027" width="182.617" height="11.101"/>
</g>
</svg>
