<?xml version="1.0" encoding="utf-8"?>
<!-- Generator: Adobe Illustrator 16.0.0, SVG Export Plug-In . SVG Version: 6.00 Build 0)  -->
<!DOCTYPE svg PUBLIC "-//W3C//DTD SVG 1.1//EN" "http://www.w3.org/Graphics/SVG/1.1/DTD/svg11.dtd">
<svg version="1.1" id="Livello_1" xmlns="http://www.w3.org/2000/svg" xmlns:xlink="http://www.w3.org/1999/xlink" x="0px" y="0px"
	 width="296.644px" height="276.51px" viewBox="0 0 296.644 276.51" enable-background="new 0 0 296.644 276.51"
	 xml:space="preserve">
<g id="capelli1">
	<path fill="#012538" d="M285.523,162.803c3.105-6.334,4.854-13.453,4.854-20.984c0-23.704-17.277-43.363-39.923-47.098
		c-4.93-42.195-40.779-74.949-84.303-74.949c-36.759,0-68.054,23.369-79.862,56.056c-7.655-3.939-16.328-6.177-25.53-6.177
		c-30.872,0-55.896,25.025-55.896,55.894c0,11.958,3.767,23.028,10.161,32.117c-7.949,9.194-12.817,21.662-12.817,33.816
		c0,19.611,12.671,42.07,30.514,48.941c1.202-10.647,9.828-19.044,20.593-19.883v31.393c0,2.655,2.153,4.808,4.807,4.808
		c2.656,0,4.809-2.152,4.809-4.808V221.89h0.001v-40.503c16.169-0.619,30.573-8.104,40.386-19.626
		c15.53,17.083,37.93,27.807,62.834,27.807c16.238,0,31.407-4.564,44.305-12.47c6.401,5.84,14.399,9.952,23.26,11.626v22.431v11.085
		v29.691c0,2.655,2.153,4.808,4.808,4.808c2.655,0,4.809-2.152,4.809-4.808v-31.042c10.64,0.831,19.197,9.064,20.542,19.553
		c17.869-6.849,30.563-29.332,30.563-48.962C294.437,181.464,291.131,171.237,285.523,162.803z"/>
	<path opacity="0.2" fill="#FFFFFF" d="M230.14,107.234c-3.752,0-6.795-3.042-6.795-6.794c0-30.207-24.578-54.783-54.786-54.783
		c-3.752,0-6.794-3.042-6.794-6.794s3.042-6.794,6.794-6.794c37.702,0,68.374,30.67,68.374,68.371
		C236.933,104.191,233.892,107.234,230.14,107.234z"/>
</g>
</svg>
