<?xml version="1.0" encoding="utf-8"?>
<!-- Generator: Adobe Illustrator 16.0.0, SVG Export Plug-In . SVG Version: 6.00 Build 0)  -->
<!DOCTYPE svg PUBLIC "-//W3C//DTD SVG 1.1//EN" "http://www.w3.org/Graphics/SVG/1.1/DTD/svg11.dtd">
<svg version="1.1" id="Livello_1" xmlns="http://www.w3.org/2000/svg" xmlns:xlink="http://www.w3.org/1999/xlink" x="0px" y="0px"
	 width="325.503px" height="306.711px" viewBox="0 0 325.503 306.711" enable-background="new 0 0 325.503 306.711"
	 xml:space="preserve">
<g id="capelli3">
	<g>
		<path fill="#012538" d="M112.349,271.831v12.237c0,3.981,3.224,7.202,7.201,7.202c3.977,0,7.2-3.221,7.2-7.202v-5.4
			c-5.033-2.063-9.845-4.55-14.401-7.407V271.831z"/>
		<path fill="#012538" d="M198.751,284.068c0,3.981,3.225,7.202,7.202,7.202c3.974,0,7.198-3.221,7.198-7.202v-12.237v-0.57
			c-4.556,2.859-9.368,5.346-14.4,7.409V284.068z"/>
		<path fill="#012538" d="M70.638,214.062c-1.737-6.879-2.691-14.063-2.836-21.447c-4.983-0.377-9.505-2.365-13.054-5.456v29.97
			v12.24v30.125v12.338v12.237c0,3.981,3.223,7.202,7.2,7.202s7.2-3.221,7.2-7.202v-12.237v-0.807c0-3.978,3.222-7.198,7.199-7.198
			c3.977,0,7.201,3.221,7.201,7.198v0.807v12.237c0,3.981,3.224,7.202,7.2,7.202s7.2-3.221,7.2-7.202v-12.237v-0.807
			c0-3.098,1.966-5.714,4.708-6.729C87.139,251.6,75.699,234.105,70.638,214.062z"/>
		<path fill="#012538" d="M270.717,187.54c-3.548,3.076-8.06,5.053-13.026,5.426c-0.169,7.259-1.116,14.326-2.824,21.096
			c-5.061,20.043-16.503,37.538-32.021,50.234c2.742,1.015,4.708,3.632,4.708,6.729v0.807v12.237c0,3.981,3.224,7.202,7.198,7.202
			c3.978,0,7.202-3.221,7.202-7.202v-12.237v-0.807c0-3.978,3.225-7.198,7.198-7.198c3.978,0,7.202,3.221,7.202,7.198v0.807v12.237
			c0,3.981,3.222,7.202,7.199,7.202s7.202-3.221,7.202-7.202v-12.237v-0.807v-51.322L270.717,187.54z"/>
		<path fill="#012538" d="M231.21,137.811v-12.839v-0.846c0-4.173,3.38-7.551,7.554-7.551c4.173,0,7.554,3.378,7.554,7.551v0.846
			v12.839c0,4.175,3.38,7.553,7.554,7.553c1.43,0,2.75-0.418,3.89-1.107v3.846c4.921,0.384,9.391,2.345,12.916,5.387l-0.035-30.101
			c0-59.62-48.327-107.947-107.946-107.947c-59.621,0-107.947,48.327-107.947,107.947v29.815c3.536-3.078,8.034-5.066,12.995-5.452
			v-4.189c1.314,1.109,2.99,1.802,4.845,1.802c4.173,0,7.554-3.378,7.554-7.553v-12.839v-0.846c0-4.173,3.38-7.551,7.553-7.551
			c4.172,0,7.554,3.378,7.554,7.551v0.846v12.839c0,4.175,3.383,7.553,7.554,7.553c4.172,0,7.554-3.378,7.554-7.553v-12.839v-0.846
			c0-4.173,3.382-7.551,7.553-7.551c4.173,0,7.554,3.378,7.554,7.551v0.846v12.839c0,4.175,3.382,7.553,7.555,7.553
			c4.171,0,7.553-3.378,7.553-7.553v-12.839v-0.846c0-4.173,3.382-7.551,7.553-7.551c4.173,0,7.554,3.378,7.554,7.551v0.846v12.839
			c0,4.175,3.382,7.553,7.556,7.553c4.169,0,7.549-3.378,7.549-7.553v-12.839v-0.846c0-4.173,3.384-7.551,7.554-7.551
			c4.174,0,7.554,3.378,7.554,7.551v0.846v12.839c0,4.175,3.384,7.553,7.554,7.553c4.173,0,7.554-3.378,7.554-7.553v-12.839v-0.846
			c0-4.173,3.381-7.551,7.554-7.551s7.554,3.378,7.554,7.551v0.846v12.839c0,4.175,3.38,7.553,7.554,7.553
			C227.83,145.363,231.21,141.985,231.21,137.811z"/>
	</g>
	<path opacity="0.2" fill="#FFFFFF" d="M239.826,102.428c-3.442,0-6.23-2.79-6.23-6.231c0-28.517-23.2-51.715-51.714-51.715
		c-3.442,0-6.233-2.791-6.233-6.233c0-3.441,2.791-6.231,6.233-6.231c35.388,0,64.178,28.791,64.178,64.18
		C246.059,99.638,243.267,102.428,239.826,102.428z"/>
</g>
</svg>
