<?xml version="1.0" encoding="utf-8"?>
<!-- Generator: Adobe Illustrator 16.0.0, SVG Export Plug-In . SVG Version: 6.00 Build 0)  -->
<!DOCTYPE svg PUBLIC "-//W3C//DTD SVG 1.1//EN" "http://www.w3.org/Graphics/SVG/1.1/DTD/svg11.dtd">
<svg version="1.1" id="Livello_1" xmlns="http://www.w3.org/2000/svg" xmlns:xlink="http://www.w3.org/1999/xlink" x="0px" y="0px"
	 width="265.772px" height="242.282px" viewBox="0 0 265.772 242.282" enable-background="new 0 0 265.772 242.282"
	 xml:space="preserve">
<g id="capelli1_1_">
	<path id="capelli1" fill="#002334" d="M228.458,129.288c8.682-11.414,13.846-25.648,13.846-41.094
		c0-37.513-30.416-67.93-67.929-67.93c-20.271,0-38.459,8.89-50.906,22.969c-7.313-4.019-15.708-6.308-24.64-6.308
		c-28.271,0-51.199,22.896-51.264,51.15c-4.404,5.518-8.243,11.504-11.433,17.875c-7.54,4.072-12.664,12.047-12.664,21.216
		c0,4.07,1.014,7.9,2.796,11.262c-0.531,4.201-0.806,8.484-0.806,12.83c0,27.531,10.983,52.494,28.801,70.76v-71.709
		c8.718-2.52,15.399-9.828,17.013-18.896c7.961,5.086,17.41,8.047,27.557,8.047c8.93,0,17.323-2.287,24.635-6.303
		c12.448,14.086,30.636,22.979,50.911,22.979c4.583,0,9.06-0.461,13.39-1.328c2.516,4.826,6.613,8.691,11.607,10.908v56.303
		c16.172-16.58,26.711-38.678,28.52-63.207c3.34-4.135,5.344-9.395,5.344-15.125C233.235,138.288,231.458,133.305,228.458,129.288z"
		/>
	<path opacity="0.2" fill="#FFFFFF" d="M229.151,85.968c0,4.775-3.871,8.646-8.646,8.646c-4.777,0-8.646-3.871-8.646-8.646
		c0-20.436-16.627-37.059-37.059-37.059c-4.777,0-8.647-3.873-8.647-8.647c0-4.777,3.87-8.647,8.647-8.647
		C204.769,31.615,229.151,55.997,229.151,85.968z"/>
</g>
</svg>
