<?xml version="1.0" encoding="utf-8"?>
<!-- Generator: Adobe Illustrator 16.0.0, SVG Export Plug-In . SVG Version: 6.00 Build 0)  -->
<!DOCTYPE svg PUBLIC "-//W3C//DTD SVG 1.1//EN" "http://www.w3.org/Graphics/SVG/1.1/DTD/svg11.dtd">
<svg version="1.1" id="Livello_1" xmlns="http://www.w3.org/2000/svg" xmlns:xlink="http://www.w3.org/1999/xlink" x="0px" y="0px"
	 width="289.933px" height="271.051px" viewBox="0 0 289.933 271.051" enable-background="new 0 0 289.933 271.051"
	 xml:space="preserve">
<g id="orecchie">
	<g id="esternoOrecchie">
		<path fill="#F6C09C" d="M260.722,135.697c0,12.439-10.084,22.523-22.515,22.523c-12.437,0-22.528-10.084-22.528-22.523
			c0-12.427,10.092-22.516,22.528-22.516C250.638,113.182,260.722,123.271,260.722,135.697z"/>
		<path fill="#F6C09C" d="M74.237,135.347c0,12.439-10.076,22.523-22.511,22.523c-12.443,0-22.516-10.084-22.516-22.523
			c0-12.427,10.072-22.516,22.516-22.516C64.161,112.831,74.237,122.92,74.237,135.347z"/>
	</g>
	<g id="internoOrecchie">
		<path fill="#EE927E" d="M248.518,135.698c0,5.713-4.614,10.328-10.317,10.328c-5.702,0-10.316-4.614-10.316-10.328
			c0-5.69,4.614-10.317,10.316-10.317C243.903,125.381,248.518,130.008,248.518,135.698z"/>
		<path fill="#EE927E" d="M62.047,135.347c0,5.713-4.623,10.328-10.316,10.328c-5.71,0-10.329-4.614-10.329-10.328
			c0-5.69,4.619-10.317,10.329-10.317C57.424,125.029,62.047,129.656,62.047,135.347z"/>
	</g>
</g>
<path id="viso_2_" fill="#F6C09C" d="M239.975,100.707c0-52.472-42.541-95.007-95.007-95.007c-52.476,0-95.011,42.535-95.011,95.007
	v69.638c0,8.05,1.01,15.862,2.896,23.327c10.399,41.19,47.691,71.679,92.115,71.679c44.417,0,81.71-30.488,92.112-71.679
	c1.884-7.465,2.895-15.277,2.895-23.327V100.707z"/>
</svg>
