<?xml version="1.0" encoding="utf-8"?>
<!-- Generator: Adobe Illustrator 16.0.0, SVG Export Plug-In . SVG Version: 6.00 Build 0)  -->
<!DOCTYPE svg PUBLIC "-//W3C//DTD SVG 1.1//EN" "http://www.w3.org/Graphics/SVG/1.1/DTD/svg11.dtd">
<svg version="1.1" id="Livello_1" xmlns="http://www.w3.org/2000/svg" xmlns:xlink="http://www.w3.org/1999/xlink" x="0px" y="0px"
	 width="45.638px" height="45.637px" viewBox="0 0 45.638 45.637" enable-background="new 0 0 45.638 45.637" xml:space="preserve">
<g id="naso1">
	<circle fill="#EF3A66" cx="13.347" cy="22.818" r="3.971"/>
	<circle fill="#EF3A66" cx="32.29" cy="22.818" r="3.972"/>
</g>
</svg>
