<?xml version="1.0" encoding="utf-8"?>
<!-- Generator: Adobe Illustrator 16.0.0, SVG Export Plug-In . SVG Version: 6.00 Build 0)  -->
<!DOCTYPE svg PUBLIC "-//W3C//DTD SVG 1.1//EN" "http://www.w3.org/Graphics/SVG/1.1/DTD/svg11.dtd">
<svg version="1.1" id="Livello_1" xmlns="http://www.w3.org/2000/svg" xmlns:xlink="http://www.w3.org/1999/xlink" x="0px" y="0px"
	 width="53.801px" height="50.267px" viewBox="0 0 53.801 50.267" enable-background="new 0 0 53.801 50.267" xml:space="preserve">
<g id="orecchini2">
	<path fill="#D4D1E9" d="M36.874,30.191c0,5.509-4.464,9.973-9.972,9.973s-9.974-4.464-9.974-9.973
		c0-5.508,4.465-20.089,9.974-20.089S36.874,24.684,36.874,30.191z"/>
	<path opacity="0.2" fill="#FFFFFF" d="M27.16,37.803c-3.815,0-6.918-3.105-6.918-6.92c0-0.798,0.647-1.443,1.445-1.443
		s1.445,0.646,1.445,1.443c0,2.224,1.808,4.031,4.029,4.031c0.798,0,1.445,0.646,1.445,1.445
		C28.605,37.156,27.958,37.803,27.16,37.803z"/>
</g>
</svg>
